0;
0;0
0;0
1;1
2;1
4;2
6;2
10;4
14;4
20;6
26;6
33;7
42;9
50;8
60;10
72;12
84;12
98;14
111;13
127;16
143;16
161;18
178;17
197;19
218;21
239;21
259;20
283;24
307;24
333;26
360;27
384;24
412;28
442;30
472;30
500;28
533;33
566;33
600;34
632;32
668;36
705;37
743;38
778;35
818;40
858;40
900;42
942;42
982;40
1026;44
1072;46
1118;46
1161;43
1209;48
1257;48
1306;49
1350;44
1400;50
1449;49
1498;49
1543;45
1592;49
1642;50
1692;50
1742;50
1786;44
1836;50
1886;50
1936;50
1980;44
2030;50
2080;50
2130;50
2175;45
2225;50
2275;50
2325;50
2370;45
2420;50
2470;50
2521;51
2571;50
2616;45
2666;50
2716;50
2767;51
2812;45
2862;50
2913;51
2963;50
3008;45
3059;51
3110;51
3160;50
3210;50
3256;46
3306;50
3357;51
3408;51
3453;45
3504;51
3554;50
3604;50
3650;46
3700;50
3751;51
3802;51
3847;45
3898;51
3948;50
3999;51
4050;51
4095;45
4146;51
4196;50
4247;51
4292;45
4343;51
4394;51
4444;50
4490;46
4540;50
4591;51
4642;51
4688;46
4738;50
4789;51
4840;51
4890;50
4936;46
4986;50
5037;51
5088;51
5134;46
5184;50
5235;51
5286;51
5332;46
5382;50
5434;52
5484;50
5530;46
5581;51
5632;51
5682;50
5733;51
5779;46
5830;51
5880;50
5931;51
5977;46
6028;51
6079;51
6130;51
6176;46
6226;50
6277;51
6328;51
6379;51
6425;46
6476;51
6526;50
6578;52
6623;45
6674;51
6725;51
6776;51
6822;46
6873;51
6924;51
6974;50
7020;46
7071;51
7122;51
7173;51
7224;51
7270;46
7321;51
7372;51
7423;51
7468;45
7520;52
7570;50
7621;51
7667;46
7718;51
7769;51
7820;51
7866;46
7916;50
7967;51
8018;51
8069;51
8115;46
8166;51
8217;51
8268;51
8314;46
8365;51
8416;51
8467;51
8513;46
8564;51
8615;51
8666;51
8711;45
8762;51
8813;51
8864;51
8914;50
8960;46
9011;51
9062;51
9113;51
9159;46
9210;51
9261;51
9312;51
9357;45
9408;51
9459;51
9510;51
9561;51
9607;46
9658;51
9709;51
9760;51
9806;46
9857;51
9908;51
9959;51
10005;46
10056;51
10106;50
10158;52
10204;46
10254;50
10306;52
10356;50
10408;52
10454;46
10505;51
10556;51
10607;51
10653;46
10704;51
10755;51
10806;51
10852;46
10903;51
10954;51
11005;51
11051;46
11102;51
11153;51
11204;51
11256;52
11301;45
11352;51
11404;52
11455;51
11501;46
11552;51
11603;51
11654;51
11700;46
11751;51
11802;51
11854;52
11900;46
11950;50
12002;52
12053;51
12104;51
12150;46
12201;51
12252;51
12303;51
12349;46
12400;51
12452;52
12502;50
12548;46
12600;52
12651;51
12702;51
12753;51
12799;46
12850;51
12902;52
12953;51
12999;46
13050;51
13101;51
13152;51
13198;46
13250;52
13300;50
13352;52
13398;46
13449;51
13500;51
13551;51
13602;51
13648;46
13700;52
13751;51
13802;51
13848;46
13899;51
13950;51
14002;52
14048;46
14099;51
14150;51
14201;51
14247;46
14298;51
14350;52
14401;51
14452;51
14498;46
14549;51
14600;51
14651;51
14698;47
14748;50
14800;52
14851;51
14897;46
14948;51
14999;51
15050;51
15096;46
15148;52
15199;51
15250;51
15301;51
15347;46
15398;51
15450;52
15501;51
15547;46
15598;51
15649;51
15700;51
15747;47
15798;51
15849;51
15900;51
15952;52
15998;46
16049;51
16100;51
16151;51
16197;46
16248;51
16300;52
16351;51
16397;46
16448;51
16500;52
16551;51
16597;46
16648;51
16699;51
16750;51
16802;52
16848;46
16899;51
16950;51
17002;52
17048;46
17099;51
17150;51
17202;52
17248;46
17299;51
17350;51
17402;52
17448;46
17499;51
17550;51
17602;52
17653;51
17700;47
17751;51
17802;51
17853;51
17900;47
17951;51
18002;51
18054;52
18100;46
18151;51
18202;51
18254;52
18300;46
18351;51
18402;51
18454;52
18505;51
18551;46
18602;51
18654;52
18706;52
18752;46
18803;51
18854;51
18906;52
18952;46
19004;52
19055;51
19106;51
19158;52
19204;46
19255;51
19306;51
19358;52
19404;46
19456;52
19507;51
19558;51
19604;46
19656;52
19707;51
19759;52
19805;46
19856;51
19907;51
19959;52
20010;51
20056;46
20108;52
20159;51
20210;51
20257;47
20308;51
20360;52
20411;51
20457;46
20508;51
20560;52
20611;51
20657;46
20708;51
20760;52
20811;51
20863;52
20909;46
20960;51
21012;52
21063;51
21110;47
21161;51
21212;51
21264;52
21310;46
21362;52
21413;51
21465;52
21511;46
21562;51
21614;52
21665;51
21717;52
21763;46
21814;51
21866;52
21918;52
21964;46
22015;51
22067;52
22118;51
22164;46
22216;52
22267;51
22319;52
22370;51
22416;46
22467;51
22518;51
22570;52
22616;46
22667;51
22718;51
22770;52
22816;46
22867;51
22918;51
22970;52
23016;46
23067;51
23118;51
23170;52
23221;51
23267;46
23318;51
23370;52
23421;51
