(kicad_sch (version 20211123) (generator eeschema)

  (uuid e63e39d7-6ac0-4ffd-8aa3-1841a4541b55)

  (paper "A4")

  (lib_symbols
    (symbol "Device:Battery_Cell" (pin_numbers hide) (pin_names (offset 0) hide) (in_bom yes) (on_board yes)
      (property "Reference" "BT" (id 0) (at 2.54 2.54 0)
        (effects (font (size 1.27 1.27)) (justify left))
      )
      (property "Value" "Battery_Cell" (id 1) (at 2.54 0 0)
        (effects (font (size 1.27 1.27)) (justify left))
      )
      (property "Footprint" "" (id 2) (at 0 1.524 90)
        (effects (font (size 1.27 1.27)) hide)
      )
      (property "Datasheet" "~" (id 3) (at 0 1.524 90)
        (effects (font (size 1.27 1.27)) hide)
      )
      (property "ki_keywords" "battery cell" (id 4) (at 0 0 0)
        (effects (font (size 1.27 1.27)) hide)
      )
      (property "ki_description" "Single-cell battery" (id 5) (at 0 0 0)
        (effects (font (size 1.27 1.27)) hide)
      )
      (symbol "Battery_Cell_0_1"
        (rectangle (start -2.286 1.778) (end 2.286 1.524)
          (stroke (width 0) (type default) (color 0 0 0 0))
          (fill (type outline))
        )
        (rectangle (start -1.5748 1.1938) (end 1.4732 0.6858)
          (stroke (width 0) (type default) (color 0 0 0 0))
          (fill (type outline))
        )
        (polyline
          (pts
            (xy 0 0.762)
            (xy 0 0)
          )
          (stroke (width 0) (type default) (color 0 0 0 0))
          (fill (type none))
        )
        (polyline
          (pts
            (xy 0 1.778)
            (xy 0 2.54)
          )
          (stroke (width 0) (type default) (color 0 0 0 0))
          (fill (type none))
        )
        (polyline
          (pts
            (xy 0.508 3.429)
            (xy 1.524 3.429)
          )
          (stroke (width 0.254) (type default) (color 0 0 0 0))
          (fill (type none))
        )
        (polyline
          (pts
            (xy 1.016 3.937)
            (xy 1.016 2.921)
          )
          (stroke (width 0.254) (type default) (color 0 0 0 0))
          (fill (type none))
        )
      )
      (symbol "Battery_Cell_1_1"
        (pin passive line (at 0 5.08 270) (length 2.54)
          (name "+" (effects (font (size 1.27 1.27))))
          (number "1" (effects (font (size 1.27 1.27))))
        )
        (pin passive line (at 0 -2.54 90) (length 2.54)
          (name "-" (effects (font (size 1.27 1.27))))
          (number "2" (effects (font (size 1.27 1.27))))
        )
      )
    )
    (symbol "MCU_Module:Arduino_Nano_Every" (in_bom yes) (on_board yes)
      (property "Reference" "A" (id 0) (at -10.16 23.495 0)
        (effects (font (size 1.27 1.27)) (justify left bottom))
      )
      (property "Value" "Arduino_Nano_Every" (id 1) (at 5.08 -24.13 0)
        (effects (font (size 1.27 1.27)) (justify left top))
      )
      (property "Footprint" "Module:Arduino_Nano" (id 2) (at 0 0 0)
        (effects (font (size 1.27 1.27) italic) hide)
      )
      (property "Datasheet" "https://content.arduino.cc/assets/NANOEveryV3.0_sch.pdf" (id 3) (at 0 0 0)
        (effects (font (size 1.27 1.27)) hide)
      )
      (property "ki_keywords" "Arduino nano microcontroller module USB UPDI AATMega4809 AVR" (id 4) (at 0 0 0)
        (effects (font (size 1.27 1.27)) hide)
      )
      (property "ki_description" "Arduino Nano Every" (id 5) (at 0 0 0)
        (effects (font (size 1.27 1.27)) hide)
      )
      (property "ki_fp_filters" "Arduino*Nano*" (id 6) (at 0 0 0)
        (effects (font (size 1.27 1.27)) hide)
      )
      (symbol "Arduino_Nano_Every_0_1"
        (rectangle (start -10.16 22.86) (end 10.16 -22.86)
          (stroke (width 0.254) (type default) (color 0 0 0 0))
          (fill (type background))
        )
      )
      (symbol "Arduino_Nano_Every_1_1"
        (pin bidirectional line (at -12.7 20.32 0) (length 2.54)
          (name "TX1" (effects (font (size 1.27 1.27))))
          (number "1" (effects (font (size 1.27 1.27))))
        )
        (pin bidirectional line (at -12.7 0 0) (length 2.54)
          (name "D7" (effects (font (size 1.27 1.27))))
          (number "10" (effects (font (size 1.27 1.27))))
        )
        (pin bidirectional line (at -12.7 -2.54 0) (length 2.54)
          (name "D8" (effects (font (size 1.27 1.27))))
          (number "11" (effects (font (size 1.27 1.27))))
        )
        (pin bidirectional line (at -12.7 -5.08 0) (length 2.54)
          (name "D9" (effects (font (size 1.27 1.27))))
          (number "12" (effects (font (size 1.27 1.27))))
        )
        (pin bidirectional line (at -12.7 -7.62 0) (length 2.54)
          (name "D10" (effects (font (size 1.27 1.27))))
          (number "13" (effects (font (size 1.27 1.27))))
        )
        (pin bidirectional line (at -12.7 -12.7 0) (length 2.54)
          (name "MOSI" (effects (font (size 1.27 1.27))))
          (number "14" (effects (font (size 1.27 1.27))))
        )
        (pin bidirectional line (at -12.7 -15.24 0) (length 2.54)
          (name "MISO" (effects (font (size 1.27 1.27))))
          (number "15" (effects (font (size 1.27 1.27))))
        )
        (pin bidirectional line (at -12.7 -17.78 0) (length 2.54)
          (name "SCK" (effects (font (size 1.27 1.27))))
          (number "16" (effects (font (size 1.27 1.27))))
        )
        (pin power_out line (at 2.54 25.4 270) (length 2.54)
          (name "3V3" (effects (font (size 1.27 1.27))))
          (number "17" (effects (font (size 1.27 1.27))))
        )
        (pin input line (at 12.7 5.08 180) (length 2.54)
          (name "AREF" (effects (font (size 1.27 1.27))))
          (number "18" (effects (font (size 1.27 1.27))))
        )
        (pin bidirectional line (at 12.7 0 180) (length 2.54)
          (name "A0" (effects (font (size 1.27 1.27))))
          (number "19" (effects (font (size 1.27 1.27))))
        )
        (pin bidirectional line (at -12.7 17.78 0) (length 2.54)
          (name "RX1" (effects (font (size 1.27 1.27))))
          (number "2" (effects (font (size 1.27 1.27))))
        )
        (pin bidirectional line (at 12.7 -2.54 180) (length 2.54)
          (name "A1" (effects (font (size 1.27 1.27))))
          (number "20" (effects (font (size 1.27 1.27))))
        )
        (pin bidirectional line (at 12.7 -5.08 180) (length 2.54)
          (name "A2" (effects (font (size 1.27 1.27))))
          (number "21" (effects (font (size 1.27 1.27))))
        )
        (pin bidirectional line (at 12.7 -7.62 180) (length 2.54)
          (name "A3" (effects (font (size 1.27 1.27))))
          (number "22" (effects (font (size 1.27 1.27))))
        )
        (pin bidirectional line (at 12.7 -10.16 180) (length 2.54)
          (name "SDA/A4" (effects (font (size 1.27 1.27))))
          (number "23" (effects (font (size 1.27 1.27))))
        )
        (pin bidirectional line (at 12.7 -12.7 180) (length 2.54)
          (name "SCL/A5" (effects (font (size 1.27 1.27))))
          (number "24" (effects (font (size 1.27 1.27))))
        )
        (pin bidirectional line (at 12.7 -15.24 180) (length 2.54)
          (name "A6" (effects (font (size 1.27 1.27))))
          (number "25" (effects (font (size 1.27 1.27))))
        )
        (pin bidirectional line (at 12.7 -17.78 180) (length 2.54)
          (name "A7" (effects (font (size 1.27 1.27))))
          (number "26" (effects (font (size 1.27 1.27))))
        )
        (pin power_out line (at 5.08 25.4 270) (length 2.54)
          (name "+5V" (effects (font (size 1.27 1.27))))
          (number "27" (effects (font (size 1.27 1.27))))
        )
        (pin input line (at 12.7 12.7 180) (length 2.54)
          (name "~{RESET}" (effects (font (size 1.27 1.27))))
          (number "28" (effects (font (size 1.27 1.27))))
        )
        (pin passive line (at 0 -25.4 90) (length 2.54) hide
          (name "GND" (effects (font (size 1.27 1.27))))
          (number "29" (effects (font (size 1.27 1.27))))
        )
        (pin input line (at 12.7 15.24 180) (length 2.54)
          (name "~{RESET}" (effects (font (size 1.27 1.27))))
          (number "3" (effects (font (size 1.27 1.27))))
        )
        (pin power_in line (at -2.54 25.4 270) (length 2.54)
          (name "VIN" (effects (font (size 1.27 1.27))))
          (number "30" (effects (font (size 1.27 1.27))))
        )
        (pin power_in line (at 0 -25.4 90) (length 2.54)
          (name "GND" (effects (font (size 1.27 1.27))))
          (number "4" (effects (font (size 1.27 1.27))))
        )
        (pin bidirectional line (at -12.7 12.7 0) (length 2.54)
          (name "D2" (effects (font (size 1.27 1.27))))
          (number "5" (effects (font (size 1.27 1.27))))
        )
        (pin bidirectional line (at -12.7 10.16 0) (length 2.54)
          (name "D3" (effects (font (size 1.27 1.27))))
          (number "6" (effects (font (size 1.27 1.27))))
        )
        (pin bidirectional line (at -12.7 7.62 0) (length 2.54)
          (name "D4" (effects (font (size 1.27 1.27))))
          (number "7" (effects (font (size 1.27 1.27))))
        )
        (pin bidirectional line (at -12.7 5.08 0) (length 2.54)
          (name "D5" (effects (font (size 1.27 1.27))))
          (number "8" (effects (font (size 1.27 1.27))))
        )
        (pin bidirectional line (at -12.7 2.54 0) (length 2.54)
          (name "D6" (effects (font (size 1.27 1.27))))
          (number "9" (effects (font (size 1.27 1.27))))
        )
      )
    )
    (symbol "Motor:Motor_DC" (pin_numbers hide) (pin_names (offset 0) hide) (in_bom yes) (on_board yes)
      (property "Reference" "M" (id 0) (at 2.54 2.54 0)
        (effects (font (size 1.27 1.27)) (justify left))
      )
      (property "Value" "Motor_DC" (id 1) (at 2.54 -5.08 0)
        (effects (font (size 1.27 1.27)) (justify left top))
      )
      (property "Footprint" "" (id 2) (at 0 -2.286 0)
        (effects (font (size 1.27 1.27)) hide)
      )
      (property "Datasheet" "~" (id 3) (at 0 -2.286 0)
        (effects (font (size 1.27 1.27)) hide)
      )
      (property "ki_keywords" "DC Motor" (id 4) (at 0 0 0)
        (effects (font (size 1.27 1.27)) hide)
      )
      (property "ki_description" "DC Motor" (id 5) (at 0 0 0)
        (effects (font (size 1.27 1.27)) hide)
      )
      (property "ki_fp_filters" "PinHeader*P2.54mm* TerminalBlock*" (id 6) (at 0 0 0)
        (effects (font (size 1.27 1.27)) hide)
      )
      (symbol "Motor_DC_0_0"
        (polyline
          (pts
            (xy -1.27 -3.302)
            (xy -1.27 0.508)
            (xy 0 -2.032)
            (xy 1.27 0.508)
            (xy 1.27 -3.302)
          )
          (stroke (width 0) (type default) (color 0 0 0 0))
          (fill (type none))
        )
      )
      (symbol "Motor_DC_0_1"
        (circle (center 0 -1.524) (radius 3.2512)
          (stroke (width 0.254) (type default) (color 0 0 0 0))
          (fill (type none))
        )
        (polyline
          (pts
            (xy 0 -7.62)
            (xy 0 -7.112)
          )
          (stroke (width 0) (type default) (color 0 0 0 0))
          (fill (type none))
        )
        (polyline
          (pts
            (xy 0 -4.7752)
            (xy 0 -5.1816)
          )
          (stroke (width 0) (type default) (color 0 0 0 0))
          (fill (type none))
        )
        (polyline
          (pts
            (xy 0 1.7272)
            (xy 0 2.0828)
          )
          (stroke (width 0) (type default) (color 0 0 0 0))
          (fill (type none))
        )
        (polyline
          (pts
            (xy 0 2.032)
            (xy 0 2.54)
          )
          (stroke (width 0) (type default) (color 0 0 0 0))
          (fill (type none))
        )
      )
      (symbol "Motor_DC_1_1"
        (pin passive line (at 0 5.08 270) (length 2.54)
          (name "+" (effects (font (size 1.27 1.27))))
          (number "1" (effects (font (size 1.27 1.27))))
        )
        (pin passive line (at 0 -7.62 90) (length 2.54)
          (name "-" (effects (font (size 1.27 1.27))))
          (number "2" (effects (font (size 1.27 1.27))))
        )
      )
    )
    (symbol "beams:DRI0044" (in_bom yes) (on_board yes)
      (property "Reference" "U" (id 0) (at -6.35 10.16 0)
        (effects (font (size 1.27 1.27)))
      )
      (property "Value" "DRI0044" (id 1) (at 0 -10.16 0)
        (effects (font (size 1.27 1.27)))
      )
      (property "Footprint" "" (id 2) (at 0 0 0)
        (effects (font (size 1.27 1.27)) hide)
      )
      (property "Datasheet" "" (id 3) (at 0 0 0)
        (effects (font (size 1.27 1.27)) hide)
      )
      (symbol "DRI0044_0_1"
        (rectangle (start -8.89 8.89) (end 8.89 -8.89)
          (stroke (width 0) (type default) (color 0 0 0 0))
          (fill (type none))
        )
      )
      (symbol "DRI0044_1_1"
        (pin input line (at -11.43 6.35 0) (length 2.54)
          (name "DIR1" (effects (font (size 1.27 1.27))))
          (number "1" (effects (font (size 1.27 1.27))))
        )
        (pin bidirectional line (at 11.43 1.27 180) (length 2.54)
          (name "M2+" (effects (font (size 1.27 1.27))))
          (number "10" (effects (font (size 1.27 1.27))))
        )
        (pin bidirectional line (at 11.43 3.81 180) (length 2.54)
          (name "M1-" (effects (font (size 1.27 1.27))))
          (number "11" (effects (font (size 1.27 1.27))))
        )
        (pin bidirectional line (at 11.43 6.35 180) (length 2.54)
          (name "M1+" (effects (font (size 1.27 1.27))))
          (number "12" (effects (font (size 1.27 1.27))))
        )
        (pin input line (at -11.43 3.81 0) (length 2.54)
          (name "PWM1" (effects (font (size 1.27 1.27))))
          (number "2" (effects (font (size 1.27 1.27))))
        )
        (pin input line (at -11.43 1.27 0) (length 2.54)
          (name "PWM2" (effects (font (size 1.27 1.27))))
          (number "3" (effects (font (size 1.27 1.27))))
        )
        (pin input line (at -11.43 -1.27 0) (length 2.54)
          (name "DIR2" (effects (font (size 1.27 1.27))))
          (number "4" (effects (font (size 1.27 1.27))))
        )
        (pin passive line (at -11.43 -3.81 0) (length 2.54)
          (name "GND" (effects (font (size 1.27 1.27))))
          (number "5" (effects (font (size 1.27 1.27))))
        )
        (pin passive line (at -11.43 -6.35 0) (length 2.54)
          (name "VCC" (effects (font (size 1.27 1.27))))
          (number "6" (effects (font (size 1.27 1.27))))
        )
        (pin passive line (at 11.43 -6.35 180) (length 2.54)
          (name "VM" (effects (font (size 1.27 1.27))))
          (number "7" (effects (font (size 1.27 1.27))))
        )
        (pin passive line (at 11.43 -3.81 180) (length 2.54)
          (name "GND" (effects (font (size 1.27 1.27))))
          (number "8" (effects (font (size 1.27 1.27))))
        )
        (pin bidirectional line (at 11.43 -1.27 180) (length 2.54)
          (name "M2-" (effects (font (size 1.27 1.27))))
          (number "9" (effects (font (size 1.27 1.27))))
        )
      )
    )
    (symbol "power:+5V" (power) (pin_names (offset 0)) (in_bom yes) (on_board yes)
      (property "Reference" "#PWR" (id 0) (at 0 -3.81 0)
        (effects (font (size 1.27 1.27)) hide)
      )
      (property "Value" "+5V" (id 1) (at 0 3.556 0)
        (effects (font (size 1.27 1.27)))
      )
      (property "Footprint" "" (id 2) (at 0 0 0)
        (effects (font (size 1.27 1.27)) hide)
      )
      (property "Datasheet" "" (id 3) (at 0 0 0)
        (effects (font (size 1.27 1.27)) hide)
      )
      (property "ki_keywords" "power-flag" (id 4) (at 0 0 0)
        (effects (font (size 1.27 1.27)) hide)
      )
      (property "ki_description" "Power symbol creates a global label with name \"+5V\"" (id 5) (at 0 0 0)
        (effects (font (size 1.27 1.27)) hide)
      )
      (symbol "+5V_0_1"
        (polyline
          (pts
            (xy -0.762 1.27)
            (xy 0 2.54)
          )
          (stroke (width 0) (type default) (color 0 0 0 0))
          (fill (type none))
        )
        (polyline
          (pts
            (xy 0 0)
            (xy 0 2.54)
          )
          (stroke (width 0) (type default) (color 0 0 0 0))
          (fill (type none))
        )
        (polyline
          (pts
            (xy 0 2.54)
            (xy 0.762 1.27)
          )
          (stroke (width 0) (type default) (color 0 0 0 0))
          (fill (type none))
        )
      )
      (symbol "+5V_1_1"
        (pin power_in line (at 0 0 90) (length 0) hide
          (name "+5V" (effects (font (size 1.27 1.27))))
          (number "1" (effects (font (size 1.27 1.27))))
        )
      )
    )
    (symbol "power:GND" (power) (pin_names (offset 0)) (in_bom yes) (on_board yes)
      (property "Reference" "#PWR" (id 0) (at 0 -6.35 0)
        (effects (font (size 1.27 1.27)) hide)
      )
      (property "Value" "GND" (id 1) (at 0 -3.81 0)
        (effects (font (size 1.27 1.27)))
      )
      (property "Footprint" "" (id 2) (at 0 0 0)
        (effects (font (size 1.27 1.27)) hide)
      )
      (property "Datasheet" "" (id 3) (at 0 0 0)
        (effects (font (size 1.27 1.27)) hide)
      )
      (property "ki_keywords" "power-flag" (id 4) (at 0 0 0)
        (effects (font (size 1.27 1.27)) hide)
      )
      (property "ki_description" "Power symbol creates a global label with name \"GND\" , ground" (id 5) (at 0 0 0)
        (effects (font (size 1.27 1.27)) hide)
      )
      (symbol "GND_0_1"
        (polyline
          (pts
            (xy 0 0)
            (xy 0 -1.27)
            (xy 1.27 -1.27)
            (xy 0 -2.54)
            (xy -1.27 -1.27)
            (xy 0 -1.27)
          )
          (stroke (width 0) (type default) (color 0 0 0 0))
          (fill (type none))
        )
      )
      (symbol "GND_1_1"
        (pin power_in line (at 0 0 270) (length 0) hide
          (name "GND" (effects (font (size 1.27 1.27))))
          (number "1" (effects (font (size 1.27 1.27))))
        )
      )
    )
  )

  (junction (at 85.09 36.83) (diameter 0) (color 0 0 0 0)
    (uuid 4084bdd5-8440-438a-b513-668fde65ffb8)
  )
  (junction (at 85.09 92.71) (diameter 0) (color 0 0 0 0)
    (uuid 70f95074-718a-4b3a-882f-b01120a5dff7)
  )
  (junction (at 62.23 27.94) (diameter 0) (color 0 0 0 0)
    (uuid af2c31e8-0579-4e09-9093-2148432fec72)
  )
  (junction (at 59.69 92.71) (diameter 0) (color 0 0 0 0)
    (uuid d42d0d83-e4ea-4a22-a3fa-732965b62aca)
  )

  (wire (pts (xy 113.03 46.99) (xy 110.49 46.99))
    (stroke (width 0) (type default) (color 0 0 0 0))
    (uuid 01a07e15-0a66-4bc2-b10a-42e76f151aab)
  )
  (wire (pts (xy 125.73 49.53) (xy 118.11 49.53))
    (stroke (width 0) (type default) (color 0 0 0 0))
    (uuid 0203b347-ab7d-48b6-aa10-1037bd1f073d)
  )
  (wire (pts (xy 113.03 46.99) (xy 113.03 92.71))
    (stroke (width 0) (type default) (color 0 0 0 0))
    (uuid 1ae5d806-954a-4dee-b4e0-a305fda10d36)
  )
  (wire (pts (xy 110.49 44.45) (xy 113.03 44.45))
    (stroke (width 0) (type default) (color 0 0 0 0))
    (uuid 225200fc-4869-4eeb-bbeb-2f2d4466051b)
  )
  (wire (pts (xy 24.13 57.15) (xy 24.13 92.71))
    (stroke (width 0) (type default) (color 0 0 0 0))
    (uuid 3284dcf0-6040-4022-ba5e-28f440433d63)
  )
  (wire (pts (xy 85.09 44.45) (xy 85.09 36.83))
    (stroke (width 0) (type default) (color 0 0 0 0))
    (uuid 33450354-5c36-4446-add1-eb658b044e33)
  )
  (wire (pts (xy 24.13 92.71) (xy 59.69 92.71))
    (stroke (width 0) (type default) (color 0 0 0 0))
    (uuid 416d1c8c-2b29-4b2a-be6d-be35c3104dc6)
  )
  (wire (pts (xy 87.63 46.99) (xy 85.09 46.99))
    (stroke (width 0) (type default) (color 0 0 0 0))
    (uuid 41ab49e2-83dd-48f4-8f00-f1307879e273)
  )
  (wire (pts (xy 72.39 52.07) (xy 77.47 52.07))
    (stroke (width 0) (type default) (color 0 0 0 0))
    (uuid 437c5122-22f8-4c14-b37d-b16c1aa79fbc)
  )
  (wire (pts (xy 77.47 52.07) (xy 77.47 57.15))
    (stroke (width 0) (type default) (color 0 0 0 0))
    (uuid 43c0d2d0-118e-4ae3-9c58-4afdf7881440)
  )
  (wire (pts (xy 85.09 44.45) (xy 87.63 44.45))
    (stroke (width 0) (type default) (color 0 0 0 0))
    (uuid 4bee4f76-ca1d-4715-9611-aaa443b2bf8f)
  )
  (wire (pts (xy 113.03 92.71) (xy 85.09 92.71))
    (stroke (width 0) (type default) (color 0 0 0 0))
    (uuid 4c99303f-ffc1-4ad9-aa26-af99f179c5f3)
  )
  (wire (pts (xy 54.61 36.83) (xy 85.09 36.83))
    (stroke (width 0) (type default) (color 0 0 0 0))
    (uuid 4fdd6108-e419-4965-8dec-b81d96b10a80)
  )
  (wire (pts (xy 59.69 92.71) (xy 59.69 90.17))
    (stroke (width 0) (type default) (color 0 0 0 0))
    (uuid 5152543f-ef31-4114-ab8b-46b2583b0c7a)
  )
  (wire (pts (xy 54.61 36.83) (xy 54.61 39.37))
    (stroke (width 0) (type default) (color 0 0 0 0))
    (uuid 57e55951-d359-44cd-9daa-cfc95add76ba)
  )
  (wire (pts (xy 85.09 46.99) (xy 85.09 92.71))
    (stroke (width 0) (type default) (color 0 0 0 0))
    (uuid 675cc539-968e-4a24-a631-ffe186e89512)
  )
  (wire (pts (xy 72.39 54.61) (xy 87.63 54.61))
    (stroke (width 0) (type default) (color 0 0 0 0))
    (uuid 71ca19ea-6314-4ff8-b1ac-4d79d66a67ac)
  )
  (wire (pts (xy 118.11 62.23) (xy 125.73 62.23))
    (stroke (width 0) (type default) (color 0 0 0 0))
    (uuid 965cb826-e8ad-4954-a1b5-18e2779be769)
  )
  (wire (pts (xy 62.23 27.94) (xy 62.23 39.37))
    (stroke (width 0) (type default) (color 0 0 0 0))
    (uuid a20ac3ae-af35-4bad-873e-914ac46506a0)
  )
  (wire (pts (xy 110.49 57.15) (xy 118.11 57.15))
    (stroke (width 0) (type default) (color 0 0 0 0))
    (uuid a47166b0-24e0-4794-8f26-4c0df7c8d0bf)
  )
  (wire (pts (xy 59.69 93.98) (xy 59.69 92.71))
    (stroke (width 0) (type default) (color 0 0 0 0))
    (uuid b8565440-e06d-4d80-a82d-6dee5864731b)
  )
  (wire (pts (xy 85.09 36.83) (xy 85.09 35.56))
    (stroke (width 0) (type default) (color 0 0 0 0))
    (uuid be3b347e-2d3e-4038-ba7b-9915c721fe05)
  )
  (wire (pts (xy 24.13 27.94) (xy 24.13 49.53))
    (stroke (width 0) (type default) (color 0 0 0 0))
    (uuid c0e4f090-b8df-4aac-a95a-e4f3ecaee739)
  )
  (wire (pts (xy 113.03 27.94) (xy 62.23 27.94))
    (stroke (width 0) (type default) (color 0 0 0 0))
    (uuid c7401101-611a-41af-977c-fdcc088b200c)
  )
  (wire (pts (xy 118.11 49.53) (xy 118.11 54.61))
    (stroke (width 0) (type default) (color 0 0 0 0))
    (uuid d011aee7-a6b3-4a93-a1be-3b0a837294d4)
  )
  (wire (pts (xy 85.09 92.71) (xy 59.69 92.71))
    (stroke (width 0) (type default) (color 0 0 0 0))
    (uuid da886986-4cac-4e41-a77b-b2cb7c3e895b)
  )
  (wire (pts (xy 77.47 57.15) (xy 87.63 57.15))
    (stroke (width 0) (type default) (color 0 0 0 0))
    (uuid e2fc3003-e5de-44a6-8dc5-7ec46b372090)
  )
  (wire (pts (xy 24.13 27.94) (xy 62.23 27.94))
    (stroke (width 0) (type default) (color 0 0 0 0))
    (uuid e5d09eb9-efa6-4c84-96cf-f400a5c7bd5a)
  )
  (wire (pts (xy 113.03 44.45) (xy 113.03 27.94))
    (stroke (width 0) (type default) (color 0 0 0 0))
    (uuid f8fe132d-28c6-42c4-a414-c831339f667c)
  )
  (wire (pts (xy 118.11 57.15) (xy 118.11 62.23))
    (stroke (width 0) (type default) (color 0 0 0 0))
    (uuid fd2dca21-8250-4084-b6d9-117ef75cf79a)
  )
  (wire (pts (xy 110.49 54.61) (xy 118.11 54.61))
    (stroke (width 0) (type default) (color 0 0 0 0))
    (uuid ff001136-c310-4ed2-a4ce-da1c3aa06a06)
  )

  (symbol (lib_id "MCU_Module:Arduino_Nano_Every") (at 59.69 64.77 0) (mirror y) (unit 1)
    (in_bom yes) (on_board yes)
    (uuid 83226cf4-4bcb-4755-8744-16fd92f3a724)
    (property "Reference" "A1" (id 0) (at 66.04 40.64 0)
      (effects (font (size 1.27 1.27)) (justify right))
    )
    (property "Value" "Arduino_Nano_Every" (id 1) (at 60.96 88.9 0)
      (effects (font (size 1.27 1.27)) (justify right))
    )
    (property "Footprint" "Module:Arduino_Nano" (id 2) (at 59.69 64.77 0)
      (effects (font (size 1.27 1.27) italic) hide)
    )
    (property "Datasheet" "https://content.arduino.cc/assets/NANOEveryV3.0_sch.pdf" (id 3) (at 59.69 64.77 0)
      (effects (font (size 1.27 1.27)) hide)
    )
    (pin "1" (uuid 86856bef-d161-4600-b8d6-44f81ad42b7c))
    (pin "10" (uuid d0f11060-bc65-49c7-b1f8-1ffca12c5c16))
    (pin "11" (uuid 1002411f-a485-468c-981b-cec2ce41d8bd))
    (pin "12" (uuid 1a0c5194-0d7e-4fcc-a11d-049fac80c4dc))
    (pin "13" (uuid 415d6a7d-98b2-4d17-b46f-6f38749a3ba2))
    (pin "14" (uuid 4dfbe524-132d-43d4-8ae0-9aa2f72df70b))
    (pin "15" (uuid 6b1d6bcd-1928-474b-8dbd-6dab746597ca))
    (pin "16" (uuid b9f8ba78-9b7b-4a7c-8351-c9f145a140ab))
    (pin "17" (uuid 494a6b97-f33e-4834-b724-0c3a3ff54317))
    (pin "18" (uuid 506110af-ac51-4501-bfa6-1552a848d599))
    (pin "19" (uuid 3520b9bf-2dfc-4868-a650-86ff98682e83))
    (pin "2" (uuid ab3e0d45-ad5b-42a1-ab02-8fee32ad804e))
    (pin "20" (uuid 1c6c46b2-dd9e-430f-85e9-621815ceca94))
    (pin "21" (uuid 9c7af13e-949e-4a55-a6b7-45ef51b4f106))
    (pin "22" (uuid 6e23d37a-3804-4cb0-9f56-ede150eedda5))
    (pin "23" (uuid 730780c7-40bd-484b-b640-ae047209b478))
    (pin "24" (uuid 5ea450c5-c799-4c49-a77b-90af3b812ea4))
    (pin "25" (uuid a56d1fde-b4ad-42de-a848-9c94bc0cbe09))
    (pin "26" (uuid 226748a0-9c54-4438-a724-741c7846a7bf))
    (pin "27" (uuid 28aab436-a04a-4f1d-a887-4f09513fdc8a))
    (pin "28" (uuid 45b2cd71-50dd-4f61-80ce-9a5382fe6dd4))
    (pin "29" (uuid 481d8c49-260f-40f8-9d7a-177fecb9140f))
    (pin "3" (uuid 443b842e-cdd6-495f-a7fb-0cef04c17274))
    (pin "30" (uuid 7ab8aff0-29e4-4be7-af1f-6a97b7752e20))
    (pin "4" (uuid 52fe3400-bf18-4fe5-aa6e-2be779b65697))
    (pin "5" (uuid 7112d2ae-7915-4f1a-aae6-e71244f669d8))
    (pin "6" (uuid 510813ff-4301-4d7b-b640-805049ac6194))
    (pin "7" (uuid 190829cf-8172-400f-bba0-21761cc942eb))
    (pin "8" (uuid 3fe74e96-d630-4db9-83b3-437a4cba15b4))
    (pin "9" (uuid ef996d8d-e885-4c54-b48b-e12cd0bd7e8e))
  )

  (symbol (lib_id "Motor:Motor_DC") (at 125.73 54.61 0) (unit 1)
    (in_bom yes) (on_board yes)
    (uuid 88071c39-7478-4d42-a0c9-ea227d61f16f)
    (property "Reference" "M1" (id 0) (at 130.81 55.88 0)
      (effects (font (size 1.27 1.27)) (justify left))
    )
    (property "Value" "Motor_DC" (id 1) (at 130.81 58.4199 0)
      (effects (font (size 1.27 1.27)) (justify left))
    )
    (property "Footprint" "" (id 2) (at 125.73 56.896 0)
      (effects (font (size 1.27 1.27)) hide)
    )
    (property "Datasheet" "~" (id 3) (at 125.73 56.896 0)
      (effects (font (size 1.27 1.27)) hide)
    )
    (pin "1" (uuid dca493a0-6eda-488f-a002-b8342b37cfb9))
    (pin "2" (uuid 2c6fedfa-d124-4a32-aaf9-1170178a9e41))
  )

  (symbol (lib_id "beams:DRI0044") (at 99.06 50.8 0) (mirror x) (unit 1)
    (in_bom yes) (on_board yes)
    (uuid 9a0b74a5-4879-4b51-8e8e-6d85a0107422)
    (property "Reference" "U1" (id 0) (at 92.71 40.64 0))
    (property "Value" "DRI0044" (id 1) (at 99.06 60.96 0))
    (property "Footprint" "" (id 2) (at 99.06 50.8 0)
      (effects (font (size 1.27 1.27)) hide)
    )
    (property "Datasheet" "" (id 3) (at 99.06 50.8 0)
      (effects (font (size 1.27 1.27)) hide)
    )
    (pin "1" (uuid 155b0b7c-70b4-4a26-a550-bac13cab0aa4))
    (pin "10" (uuid 399fc36a-ed5d-44b5-82f7-c6f83d9acc14))
    (pin "11" (uuid fbe8ebfc-2a8e-4eb8-85c5-38ddeaa5dd00))
    (pin "12" (uuid 00e38d63-5436-49db-81f5-697421f168fc))
    (pin "2" (uuid 70e4263f-d95a-4431-b3f3-cfc800c82056))
    (pin "3" (uuid 38a501e2-0ee8-439d-bd02-e9e90e7503e9))
    (pin "4" (uuid c0c2eb8e-f6d1-4506-8e6b-4f995ad74c1f))
    (pin "5" (uuid f9c81c26-f253-4227-a69f-53e64841cfbe))
    (pin "6" (uuid 61fe4c73-be59-4519-98f1-a634322a841d))
    (pin "7" (uuid e5864fe6-2a71-47f0-90ce-38c3f8901580))
    (pin "8" (uuid 699feae1-8cdd-4d2b-947f-f24849c73cdb))
    (pin "9" (uuid d88958ac-68cd-4955-a63f-0eaa329dec86))
  )

  (symbol (lib_id "power:+5V") (at 85.09 35.56 0) (unit 1)
    (in_bom yes) (on_board yes) (fields_autoplaced)
    (uuid b2ad8ad8-50ce-4b5b-be5d-ded2608fde95)
    (property "Reference" "#PWR?" (id 0) (at 85.09 39.37 0)
      (effects (font (size 1.27 1.27)) hide)
    )
    (property "Value" "+5V" (id 1) (at 85.09 30.48 0))
    (property "Footprint" "" (id 2) (at 85.09 35.56 0)
      (effects (font (size 1.27 1.27)) hide)
    )
    (property "Datasheet" "" (id 3) (at 85.09 35.56 0)
      (effects (font (size 1.27 1.27)) hide)
    )
    (pin "1" (uuid e4388743-4bc8-4f5f-9609-492a4245e9a2))
  )

  (symbol (lib_id "Device:Battery_Cell") (at 24.13 54.61 0) (unit 1)
    (in_bom yes) (on_board yes) (fields_autoplaced)
    (uuid d360bde8-6f46-4b87-a912-9ae25fab52db)
    (property "Reference" "VDC1" (id 0) (at 27.94 52.5779 0)
      (effects (font (size 1.27 1.27)) (justify left))
    )
    (property "Value" "3-cells Li-ion" (id 1) (at 27.051 54.4446 0)
      (effects (font (size 1.27 1.27)) (justify left) hide)
    )
    (property "Footprint" "" (id 2) (at 24.13 53.086 90)
      (effects (font (size 1.27 1.27)) hide)
    )
    (property "Datasheet" "~" (id 3) (at 24.13 53.086 90)
      (effects (font (size 1.27 1.27)) hide)
    )
    (pin "1" (uuid 045ae1be-ffc1-4cf6-82bd-fe9e4de71a1a))
    (pin "2" (uuid e4015ad2-3e2f-419e-9a88-e59ab9c6e5c3))
  )

  (symbol (lib_id "power:GND") (at 59.69 93.98 0) (unit 1)
    (in_bom yes) (on_board yes) (fields_autoplaced)
    (uuid e8055a1b-b857-489c-a9c9-cfccd187e14d)
    (property "Reference" "#PWR02" (id 0) (at 59.69 100.33 0)
      (effects (font (size 1.27 1.27)) hide)
    )
    (property "Value" "GND" (id 1) (at 59.69 98.5425 0))
    (property "Footprint" "" (id 2) (at 59.69 93.98 0)
      (effects (font (size 1.27 1.27)) hide)
    )
    (property "Datasheet" "" (id 3) (at 59.69 93.98 0)
      (effects (font (size 1.27 1.27)) hide)
    )
    (pin "1" (uuid a4659fb3-8982-4912-b550-39f1f35ec229))
  )

  (sheet_instances
    (path "/" (page "1"))
  )

  (symbol_instances
    (path "/e8055a1b-b857-489c-a9c9-cfccd187e14d"
      (reference "#PWR02") (unit 1) (value "GND") (footprint "")
    )
    (path "/b2ad8ad8-50ce-4b5b-be5d-ded2608fde95"
      (reference "#PWR?") (unit 1) (value "+5V") (footprint "")
    )
    (path "/83226cf4-4bcb-4755-8744-16fd92f3a724"
      (reference "A1") (unit 1) (value "Arduino_Nano_Every") (footprint "Module:Arduino_Nano")
    )
    (path "/88071c39-7478-4d42-a0c9-ea227d61f16f"
      (reference "M1") (unit 1) (value "Motor_DC") (footprint "")
    )
    (path "/9a0b74a5-4879-4b51-8e8e-6d85a0107422"
      (reference "U1") (unit 1) (value "DRI0044") (footprint "")
    )
    (path "/d360bde8-6f46-4b87-a912-9ae25fab52db"
      (reference "VDC1") (unit 1) (value "3-cells Li-ion") (footprint "")
    )
  )
)
